%YAML 1.1
%TAG !u! tag:unity3d.com,2011:
--- !u!114 &11400000
MonoBehaviour:
  m_ObjectHideFlags: 0
  m_CorrespondingSourceObject: {fileID: 0}
  m_PrefabInstance: {fileID: 0}
  m_PrefabAsset: {fileID: 0}
  m_GameObject: {fileID: 0}
  m_Enabled: 1
  m_EditorHideFlags: 0
  m_Script: {fileID: 11500000, guid: 614768199d046dc4bac32daf0e55234b, type: 3}
  m_Name: DiscGun
  m_EditorClassIdentifier: 
  connectedPrefab: {fileID: 1123618672855078, guid: ce311a234fba81642b65a17cfa782294,
    type: 3}
  icon: {fileID: 0}
  spawnUI: 0
  itemUI: {fileID: 0}
  keepUIActiveIfDropped: 0
  setOwnerAsParent: 0
  value: 0
  weight: 0
  droppable: 0
  droppedPrefab: {fileID: 0}
  quickMenuCompatible: 0
  particleFX: {fileID: 0}
  animState: 
  buffs: []
  locationData: {fileID: 11400000, guid: fcd6cf54689f2664f9ccd93a05a53c7f, type: 2}
  defaultSpawnLocation:
    stringValue: RightHand
    indexValue: 0
    stringValues:
    - RightHand
  removeAmount: 1
  recoilTime: 0.3
  instantFirstUse: 0
  ammoType: 1
  localAmmo:
    valueName: ValueName
    data: {fileID: 11400000, guid: 93cfb92eadbc41c4fb1ca6189b1a0864, type: 2}
    maxCount: 1
    unlimitedTotalAmount: 0
  globalAmmoManager: {fileID: 0}
  globalAmmo:
    stringValue: 
    indexValue: 0
    stringValues: []
  onEmpty: 0
  aimMask:
    serializedVersion: 2
    m_Bits: 0
  aimDistance: 10
  aimOffset: {x: 0, y: 0, z: 0}
  muzzlePos: Muzzle
  muzzlePosInd: 1
  aimFX: {fileID: 11400000, guid: 057445ff5c3013b49978d805599bb5ca, type: 2}
  fireType: 0
  damage: 0
  instantFirstShot: 1
  fireDelay: 0
  projectileType: 1
  fireDistance: 0
  projectile: {fileID: 1571242017430174, guid: 7cec80ab11ff50f40bfd6fd712eb8b5d, type: 3}
  projectileSpeed: 50
  spreadType: 0
  fireAmount: 0
  angle: 0
  randomAmount: 0
  aimTransformAtTarget: 0
  aimTrans:
    overridePropertyName: 
    overrideParent: 0
    parent: {fileID: 0}
    stringValue: 
    indexValue: 0
  mask:
    serializedVersion: 2
    m_Bits: 0
