%YAML 1.1
%TAG !u! tag:unity3d.com,2011:
--- !u!114 &11400000
MonoBehaviour:
  m_ObjectHideFlags: 0
  m_CorrespondingSourceObject: {fileID: 0}
  m_PrefabInstance: {fileID: 0}
  m_PrefabAsset: {fileID: 0}
  m_GameObject: {fileID: 0}
  m_Enabled: 1
  m_EditorHideFlags: 0
  m_Script: {fileID: 11500000, guid: 9d39de2788086b948816b923488b5197, type: 3}
  m_Name: UILayoutMaster_UnitValues
  m_EditorClassIdentifier: 
  layouts:
  - layoutName: Health
  - layoutName: Lives
