%YAML 1.1
%TAG !u! tag:unity3d.com,2011:
--- !u!114 &11400000
MonoBehaviour:
  m_ObjectHideFlags: 0
  m_CorrespondingSourceObject: {fileID: 0}
  m_PrefabInstance: {fileID: 0}
  m_PrefabAsset: {fileID: 0}
  m_GameObject: {fileID: 0}
  m_Enabled: 1
  m_EditorHideFlags: 0
  m_Script: {fileID: 11500000, guid: fc03e395dcaa1d644bd2baf7959dff43, type: 3}
  m_Name: AddHealth_1
  m_EditorClassIdentifier: 
  delay: 0
  affectedType:
    sceneObjectType: 2
    overrideGameObject: {fileID: 0}
    closestTag: 
    nameToFind: 
  valueManager: {fileID: 11400000, guid: 0eb7e98275f9ac34ea499fe1799e6600, type: 2}
  selectionType: 0
  valueSelection:
    selectionName: Health | PlayerHealth
    category:
      stringValue: Health
      indexValue: 0
      stringValues: []
    engineValue:
      stringValue: PlayerHealth
      indexValue: 0
      stringValues: []
    valueData: {fileID: 11400000, guid: 095945809c382254c8ea07deb65d9820, type: 2}
    id: 1000010000
  valueDelta: 1
