%YAML 1.1
%TAG !u! tag:unity3d.com,2011:
--- !u!114 &11400000
MonoBehaviour:
  m_ObjectHideFlags: 0
  m_CorrespondingSourceObject: {fileID: 0}
  m_PrefabInstance: {fileID: 0}
  m_PrefabAsset: {fileID: 0}
  m_GameObject: {fileID: 0}
  m_Enabled: 1
  m_EditorHideFlags: 0
  m_Script: {fileID: 11500000, guid: 0dbd5f06448e2a04e9d4de297763bc00, type: 3}
  m_Name: PlayerLives
  m_EditorClassIdentifier: 
  valueUIType: 0
  minValue: 0
  maxValue: 3
  id: 1000110000
  intValue: 3
