%YAML 1.1
%TAG !u! tag:unity3d.com,2011:
--- !u!114 &11400000
MonoBehaviour:
  m_ObjectHideFlags: 0
  m_CorrespondingSourceObject: {fileID: 0}
  m_PrefabInstance: {fileID: 0}
  m_PrefabAsset: {fileID: 0}
  m_GameObject: {fileID: 0}
  m_Enabled: 1
  m_EditorHideFlags: 0
  m_Script: {fileID: 11500000, guid: d475276199c5a6f4f979b9ad0e4d841a, type: 3}
  m_Name: PickUpAmmo_20
  m_EditorClassIdentifier: 
  delay: 0
  affectedType:
    sceneObjectType: 0
    closestTag: 
    nameToFind: 
  setAmmo: 1
  ammoToPickUp: {fileID: 0}
