%YAML 1.1
%TAG !u! tag:unity3d.com,2011:
--- !u!1 &6595109696320087586
GameObject:
  m_ObjectHideFlags: 0
  m_CorrespondingSourceObject: {fileID: 0}
  m_PrefabInstance: {fileID: 0}
  m_PrefabAsset: {fileID: 0}
  serializedVersion: 6
  m_Component:
  - component: {fileID: 1087593125181075918}
  m_Layer: 0
  m_Name: StackOfDollars
  m_TagString: Untagged
  m_Icon: {fileID: 0}
  m_NavMeshLayer: 0
  m_StaticEditorFlags: 0
  m_IsActive: 1
--- !u!4 &1087593125181075918
Transform:
  m_ObjectHideFlags: 0
  m_CorrespondingSourceObject: {fileID: 0}
  m_PrefabInstance: {fileID: 0}
  m_PrefabAsset: {fileID: 0}
  m_GameObject: {fileID: 6595109696320087586}
  m_LocalRotation: {x: -0, y: -0.33616254, z: -0, w: 0.941804}
  m_LocalPosition: {x: 58.1541, y: 1.104974, z: -12.101002}
  m_LocalScale: {x: 0.48243138, y: 0.029487701, z: 1.0802121}
  m_Children:
  - {fileID: 6640637665638006272}
  m_Father: {fileID: 0}
  m_RootOrder: 0
  m_LocalEulerAnglesHint: {x: 0, y: 0, z: 0}
--- !u!1001 &6834617695074312366
PrefabInstance:
  m_ObjectHideFlags: 0
  serializedVersion: 2
  m_Modification:
    m_TransformParent: {fileID: 1087593125181075918}
    m_Modifications:
    - target: {fileID: 212012577552490145, guid: 5ce7437b58176734aaa1488682bdebcf,
        type: 3}
      propertyPath: m_Name
      value: Dollar (2)
      objectReference: {fileID: 0}
    - target: {fileID: 212012577552490158, guid: 5ce7437b58176734aaa1488682bdebcf,
        type: 3}
      propertyPath: m_LocalPosition.x
      value: 0
      objectReference: {fileID: 0}
    - target: {fileID: 212012577552490158, guid: 5ce7437b58176734aaa1488682bdebcf,
        type: 3}
      propertyPath: m_LocalPosition.y
      value: 0
      objectReference: {fileID: 0}
    - target: {fileID: 212012577552490158, guid: 5ce7437b58176734aaa1488682bdebcf,
        type: 3}
      propertyPath: m_LocalPosition.z
      value: 0
      objectReference: {fileID: 0}
    - target: {fileID: 212012577552490158, guid: 5ce7437b58176734aaa1488682bdebcf,
        type: 3}
      propertyPath: m_LocalRotation.x
      value: -0
      objectReference: {fileID: 0}
    - target: {fileID: 212012577552490158, guid: 5ce7437b58176734aaa1488682bdebcf,
        type: 3}
      propertyPath: m_LocalRotation.y
      value: -0
      objectReference: {fileID: 0}
    - target: {fileID: 212012577552490158, guid: 5ce7437b58176734aaa1488682bdebcf,
        type: 3}
      propertyPath: m_LocalRotation.z
      value: -0
      objectReference: {fileID: 0}
    - target: {fileID: 212012577552490158, guid: 5ce7437b58176734aaa1488682bdebcf,
        type: 3}
      propertyPath: m_LocalRotation.w
      value: 1
      objectReference: {fileID: 0}
    - target: {fileID: 212012577552490158, guid: 5ce7437b58176734aaa1488682bdebcf,
        type: 3}
      propertyPath: m_RootOrder
      value: 0
      objectReference: {fileID: 0}
    - target: {fileID: 212012577552490158, guid: 5ce7437b58176734aaa1488682bdebcf,
        type: 3}
      propertyPath: m_LocalEulerAnglesHint.x
      value: 0
      objectReference: {fileID: 0}
    - target: {fileID: 212012577552490158, guid: 5ce7437b58176734aaa1488682bdebcf,
        type: 3}
      propertyPath: m_LocalEulerAnglesHint.y
      value: -39.286003
      objectReference: {fileID: 0}
    - target: {fileID: 212012577552490158, guid: 5ce7437b58176734aaa1488682bdebcf,
        type: 3}
      propertyPath: m_LocalEulerAnglesHint.z
      value: 0
      objectReference: {fileID: 0}
    - target: {fileID: 212012577552490158, guid: 5ce7437b58176734aaa1488682bdebcf,
        type: 3}
      propertyPath: m_LocalScale.x
      value: 1
      objectReference: {fileID: 0}
    - target: {fileID: 212012577552490158, guid: 5ce7437b58176734aaa1488682bdebcf,
        type: 3}
      propertyPath: m_LocalScale.y
      value: 1
      objectReference: {fileID: 0}
    - target: {fileID: 212012577552490158, guid: 5ce7437b58176734aaa1488682bdebcf,
        type: 3}
      propertyPath: m_LocalScale.z
      value: 1
      objectReference: {fileID: 0}
    m_RemovedComponents: []
  m_SourcePrefab: {fileID: 100100000, guid: 5ce7437b58176734aaa1488682bdebcf, type: 3}
--- !u!4 &6640637665638006272 stripped
Transform:
  m_CorrespondingSourceObject: {fileID: 212012577552490158, guid: 5ce7437b58176734aaa1488682bdebcf,
    type: 3}
  m_PrefabInstance: {fileID: 6834617695074312366}
  m_PrefabAsset: {fileID: 0}
