%YAML 1.1
%TAG !u! tag:unity3d.com,2011:
--- !u!114 &11400000
MonoBehaviour:
  m_ObjectHideFlags: 0
  m_CorrespondingSourceObject: {fileID: 0}
  m_PrefabInstance: {fileID: 0}
  m_PrefabAsset: {fileID: 0}
  m_GameObject: {fileID: 0}
  m_Enabled: 1
  m_EditorHideFlags: 0
  m_Script: {fileID: 11500000, guid: 4266ee47b90972e418ae17a01f89feb7, type: 3}
  m_Name: UnitSpeedSlow
  m_EditorClassIdentifier: 
  guid: af6dddcb559730647801cd70a0e06e56
  floatValue: 5
  minValue: 0
  maxValue: 5
